,0,1
0,All > 0.7 IOU,128
1,All < 0.2 IOU,469
2,Only Colour Science > 0.7 IOU,131
3,Only Colour Science < 0.2 IOU,1
4,Only Plant CV > 0.7 IOU,2
5,Only Plant CV < 0.2 IOU,98
6,Only Macduff > 0.7 IOU,10
7,Only Macduff < 0.2 IOU,34
